{
  "self": "http://192.168.1.32/adminapi/application/sample",
  "ScriptApplication": {
    "script": "SCRIPT[sample.aef]",
    "scriptParams": [
      {
        "name": "welcome",
        "value": "welcom.wav",
        "type": "com.cisco.prompt.Playable"
      }
    ]
  },
  "id": "3",
  "applicationName": "sample",
  "type": "Cisco Script Application",
  "description": "sample",
  "maxsession": 2,
  "enabled": "true"
}
